{
    "KPlugin": {
        "Description": "Configure Time",
        "Description[ca]": "Configura la data i l'hora",
        "Description[cs]": "Nastavit čas",
        "Description[de]": "Zeit einrichten",
        "Description[es]": "Configurar la hora",
        "Description[fr]": "Configurer l'heure",
        "Description[it]": "Configura orario",
        "Description[ko]": "시간 설정",
        "Description[nl]": "Tijd configureren",
        "Description[pl]": "Nastaw czas",
        "Description[pt]": "Configurar a Hora",
        "Description[sk]": "Nastaviť čas",
        "Description[sl]": "Nastavi čas",
        "Description[sv]": "Anpassa tid",
        "Description[uk]": "Налаштування часу",
        "Description[x-test]": "xxConfigure Timexx",
        "Description[zh_CN]": "配置时间",
        "FormFactors": [
            "desktop",
            "handset",
            "tablet",
            "mediacenter"
        ],
        "Icon": "preferences-system-time",
        "Name": "Time",
        "Name[ca]": "Data i hora",
        "Name[cs]": "Čas",
        "Name[de]": "Zeit",
        "Name[es]": "Hora",
        "Name[fr]": "Heure",
        "Name[it]": "Orario",
        "Name[ko]": "시간",
        "Name[nl]": "Tijd",
        "Name[pl]": "Czas",
        "Name[pt]": "Hora",
        "Name[sk]": "Čas",
        "Name[sl]": "Čas",
        "Name[sv]": "Tid",
        "Name[uk]": "Час",
        "Name[x-test]": "xxTimexx",
        "Name[zh_CN]": "时间"
    },
    "X-KDE-Keywords": "Time,Date,Clock",
    "X-KDE-Keywords[ca]": "hora,data,rellotge",
    "X-KDE-Keywords[cs]": "Čas,Datum,Hodiny",
    "X-KDE-Keywords[de]": "Zeit,Datum,Uhr",
    "X-KDE-Keywords[es]": "Hora,Fecha,Reloj",
    "X-KDE-Keywords[eu]": "Ordua,Data,Erlojua",
    "X-KDE-Keywords[fi]": "Aika,Kellonaika,Päiväys,Päivämäärä,Kello",
    "X-KDE-Keywords[fr]": "Heure, Date, Horloge",
    "X-KDE-Keywords[it]": "Ora,data,orologio",
    "X-KDE-Keywords[nl]": "Tijd,datum,klok",
    "X-KDE-Keywords[pl]": "Czas,Data,Zegar",
    "X-KDE-Keywords[pt]": "Hora,Data,Relógio",
    "X-KDE-Keywords[pt_BR]": "Hora,Data,Relógio",
    "X-KDE-Keywords[sk]": "Čas,dátum,hodiny",
    "X-KDE-Keywords[sl]": "Čas,Datum,Ura",
    "X-KDE-Keywords[sv]": "Tid,Datum,Klocka",
    "X-KDE-Keywords[uk]": "час,дата,годинник",
    "X-KDE-Keywords[x-test]": "xxTimexx,xxDatexx,xxClockxx",
    "X-KDE-Keywords[zh_CN]": "Time,Date,Clock,时间,日期,时钟",
    "X-KDE-System-Settings-Parent-Category": "personalization"
}
